ASxxxx Assembler V02.00 + NoICE + SDCC mods + Flat24  (Intel 8051), page 1.

Symbol Table

    .__.ABS.                                                    =  0000 G
    A                                                              00E0 
 16 A$HD44780$1000                                                 00B1 GR
 16 A$HD44780$1001                                                 00B4 GR
 16 A$HD44780$1002                                                 00B6 GR
 16 A$HD44780$1003                                                 00B8 GR
 16 A$HD44780$1004                                                 00BA GR
 16 A$HD44780$1008                                                 00BC GR
 16 A$HD44780$1019                                                 00BD GR
 16 A$HD44780$1022                                                 00BF GR
 16 A$HD44780$1023                                                 00C1 GR
 16 A$HD44780$1024                                                 00C2 GR
 16 A$HD44780$1025                                                 00C3 GR
 16 A$HD44780$1026                                                 00C4 GR
 16 A$HD44780$1027                                                 00C6 GR
 16 A$HD44780$1028                                                 00C7 GR
 16 A$HD44780$1029                                                 00C9 GR
 16 A$HD44780$1030                                                 00CB GR
 16 A$HD44780$1033                                                 00CE GR
 16 A$HD44780$1046                                                 00CF GR
 16 A$HD44780$1047                                                 00D2 GR
 16 A$HD44780$1050                                                 00D5 GR
 16 A$HD44780$1051                                                 00D8 GR
 16 A$HD44780$1054                                                 00DB GR
 16 A$HD44780$1067                                                 00DC GR
 16 A$HD44780$1068                                                 00DF GR
 16 A$HD44780$1071                                                 00E2 GR
 16 A$HD44780$1072                                                 00E5 GR
 16 A$HD44780$1075                                                 00E8 GR
 16 A$HD44780$1088                                                 00E9 GR
 16 A$HD44780$1091                                                 00EC GR
 16 A$HD44780$1094                                                 00EF GR
 16 A$HD44780$1097                                                 00F2 GR
 16 A$HD44780$1100                                                 00F5 GR
 16 A$HD44780$1103                                                 00F8 GR
 16 A$HD44780$1106                                                 00FB GR
 16 A$HD44780$1107                                                 00FE GR
 16 A$HD44780$1110                                                 0101 GR
 16 A$HD44780$1111                                                 0103 GR
 16 A$HD44780$1114                                                 0105 GR
 16 A$HD44780$1115                                                 0107 GR
 16 A$HD44780$1118                                                 0109 GR
 16 A$HD44780$1120                                                 010B GR
 16 A$HD44780$1122                                                 010E GR
 16 A$HD44780$1125                                                 0110 GR
 16 A$HD44780$1126                                                 0112 GR
 16 A$HD44780$1127                                                 0114 GR
 16 A$HD44780$1128                                                 0116 GR
 16 A$HD44780$1131                                                 0118 GR
 16 A$HD44780$1132                                                 011B GR
 16 A$HD44780$1133                                                 011D GR
 16 A$HD44780$1136                                                 0120 GR
 16 A$HD44780$1137                                                 0122 GR
 16 A$HD44780$1140                                                 0124 GR
 16 A$HD44780$1141                                                 0127 GR
 16 A$HD44780$1142                                                 012A GR
 16 A$HD44780$1145                                                 012C GR
 16 A$HD44780$1146                                                 012D GR
 16 A$HD44780$1150                                                 012F GR
 16 A$HD44780$1151                                                 0131 GR
 16 A$HD44780$1152                                                 0133 GR
 16 A$HD44780$1153                                                 0135 GR
 16 A$HD44780$1156                                                 0137 GR
 16 A$HD44780$1157                                                 013A GR
 16 A$HD44780$1160                                                 013D GR
 16 A$HD44780$1161                                                 013F GR
 16 A$HD44780$1164                                                 0141 GR
 16 A$HD44780$1165                                                 0144 GR
 16 A$HD44780$1168                                                 0147 GR
 16 A$HD44780$1169                                                 014A GR
 16 A$HD44780$1172                                                 014D GR
 16 A$HD44780$1173                                                 0150 GR
 16 A$HD44780$1176                                                 0153 GR
 16 A$HD44780$1177                                                 0156 GR
 16 A$HD44780$1180                                                 0159 GR
 16 A$HD44780$1181                                                 015C GR
 16 A$HD44780$1184                                                 015F GR
 16 A$HD44780$1185                                                 0162 GR
 16 A$HD44780$1188                                                 0165 GR
 16 A$HD44780$1189                                                 0168 GR
 16 A$HD44780$1192                                                 016B GR
 16 A$HD44780$805                                                  0000 GR
 16 A$HD44780$806                                                  0002 GR
 16 A$HD44780$807                                                  0003 GR
 16 A$HD44780$810                                                  0006 GR
 16 A$HD44780$811                                                  0008 GR
 16 A$HD44780$812                                                  000A GR
 16 A$HD44780$813                                                  000C GR
 16 A$HD44780$814                                                  000E GR
 16 A$HD44780$818                                                  0010 GR
 16 A$HD44780$819                                                  0012 GR
 16 A$HD44780$823                                                  0014 GR
 16 A$HD44780$824                                                  0015 GR
 16 A$HD44780$827                                                  0018 GR
 16 A$HD44780$828                                                  001A GR
 16 A$HD44780$829                                                  001C GR
 16 A$HD44780$830                                                  001E GR
 16 A$HD44780$831                                                  0020 GR
 16 A$HD44780$835                                                  0022 GR
 16 A$HD44780$836                                                  0024 GR
 16 A$HD44780$840                                                  0026 GR
 16 A$HD44780$841                                                  0027 GR
 16 A$HD44780$844                                                  002A GR
 16 A$HD44780$845                                                  002C GR
 16 A$HD44780$846                                                  002E GR
 16 A$HD44780$847                                                  0030 GR
 16 A$HD44780$848                                                  0032 GR
 16 A$HD44780$852                                                  0034 GR
 16 A$HD44780$853                                                  0036 GR
 16 A$HD44780$857                                                  0038 GR
 16 A$HD44780$858                                                  0039 GR
 16 A$HD44780$861                                                  003C GR
 16 A$HD44780$862                                                  003E GR
 16 A$HD44780$863                                                  0040 GR
 16 A$HD44780$864                                                  0042 GR
 16 A$HD44780$865                                                  0044 GR
 16 A$HD44780$869                                                  0046 GR
 16 A$HD44780$870                                                  0048 GR
 16 A$HD44780$874                                                  004A GR
 16 A$HD44780$885                                                  004B GR
 16 A$HD44780$888                                                  004D GR
 16 A$HD44780$889                                                  004F GR
 16 A$HD44780$890                                                  0051 GR
 16 A$HD44780$891                                                  0053 GR
 16 A$HD44780$894                                                  0055 GR
 16 A$HD44780$895                                                  0056 GR
 16 A$HD44780$896                                                  0057 GR
 16 A$HD44780$897                                                  0059 GR
 16 A$HD44780$898                                                  005B GR
 16 A$HD44780$899                                                  005D GR
 16 A$HD44780$900                                                  0060 GR
 16 A$HD44780$903                                                  0062 GR
 16 A$HD44780$904                                                  0064 GR
 16 A$HD44780$907                                                  0066 GR
 16 A$HD44780$908                                                  0068 GR
 16 A$HD44780$909                                                  006A GR
 16 A$HD44780$910                                                  006C GR
 16 A$HD44780$913                                                  006E GR
 16 A$HD44780$914                                                  0070 GR
 16 A$HD44780$917                                                  0073 GR
 16 A$HD44780$918                                                  0075 GR
 16 A$HD44780$921                                                  0077 GR
 16 A$HD44780$922                                                  007A GR
 16 A$HD44780$925                                                  007D GR
 16 A$HD44780$938                                                  007E GR
 16 A$HD44780$939                                                  0080 GR
 16 A$HD44780$942                                                  0082 GR
 16 A$HD44780$945                                                  0085 GR
 16 A$HD44780$958                                                  0086 GR
 16 A$HD44780$959                                                  0088 GR
 16 A$HD44780$960                                                  008A GR
 16 A$HD44780$961                                                  008C GR
 16 A$HD44780$964                                                  008E GR
 16 A$HD44780$967                                                  0091 GR
 16 A$HD44780$978                                                  0092 GR
 16 A$HD44780$979                                                  0094 GR
 16 A$HD44780$980                                                  0096 GR
 16 A$HD44780$984                                                  0098 GR
 16 A$HD44780$985                                                  009A GR
 16 A$HD44780$986                                                  009C GR
 16 A$HD44780$987                                                  009E GR
 16 A$HD44780$988                                                  00A1 GR
 16 A$HD44780$989                                                  00A2 GR
 16 A$HD44780$992                                                  00A4 GR
 16 A$HD44780$993                                                  00A6 GR
 16 A$HD44780$994                                                  00A7 GR
 16 A$HD44780$995                                                  00AA GR
 16 A$HD44780$997                                                  00AB GR
 16 A$HD44780$998                                                  00AD GR
 16 A$HD44780$999                                                  00AF GR
    A.0                                                            00E0 
    A.1                                                            00E1 
    A.2                                                            00E2 
    A.3                                                            00E3 
    A.4                                                            00E4 
    A.5                                                            00E5 
    A.6                                                            00E6 
    A.7                                                            00E7 
    AC                                                             00D6 
    ACC                                                            00E0 
    ACC.0                                                          00E0 
    ACC.1                                                          00E1 
    ACC.2                                                          00E2 
    ACC.3                                                          00E3 
    ACC.4                                                          00E4 
    ACC.5                                                          00E5 
    ACC.6                                                          00E6 
    ACC.7                                                          00E7 
    B                                                              00F0 
    B.0                                                            00F0 
    B.1                                                            00F1 
    B.2                                                            00F2 
    B.3                                                            00F3 
    B.4                                                            00F4 
    B.5                                                            00F5 
    B.6                                                            00F6 
    B.7                                                            00F7 
 16 C$HD44780.c$102$1$21                                        =  00CF GR
 16 C$HD44780.c$104$1$23                                        =  00CF GR
 16 C$HD44780.c$105$1$23                                        =  00D5 GR
 16 C$HD44780.c$106$1$23                                        =  00DB GR
 16 C$HD44780.c$112$1$23                                        =  00DC GR
 16 C$HD44780.c$114$1$25                                        =  00DC GR
 16 C$HD44780.c$115$1$25                                        =  00E2 GR
 16 C$HD44780.c$116$1$25                                        =  00E8 GR
 16 C$HD44780.c$122$1$25                                        =  00E9 GR
 16 C$HD44780.c$125$1$27                                        =  00E9 GR
 16 C$HD44780.c$126$1$27                                        =  00EC GR
 16 C$HD44780.c$127$1$27                                        =  00EF GR
 16 C$HD44780.c$128$1$27                                        =  00F2 GR
 16 C$HD44780.c$129$1$27                                        =  00F5 GR
 16 C$HD44780.c$130$1$27                                        =  00F8 GR
 16 C$HD44780.c$131$1$27                                        =  00FB GR
 16 C$HD44780.c$132$1$27                                        =  0101 GR
 16 C$HD44780.c$133$1$27                                        =  0105 GR
 16 C$HD44780.c$135$1$27                                        =  012C GR
 16 C$HD44780.c$137$2$28                                        =  0110 GR
 16 C$HD44780.c$138$2$28                                        =  0118 GR
 16 C$HD44780.c$139$2$28                                        =  0120 GR
 16 C$HD44780.c$140$2$28                                        =  0124 GR
 16 C$HD44780.c$143$1$27                                        =  012F GR
 16 C$HD44780.c$144$1$27                                        =  0137 GR
 16 C$HD44780.c$145$1$27                                        =  013D GR
 16 C$HD44780.c$147$1$27                                        =  0141 GR
 16 C$HD44780.c$148$1$27                                        =  0147 GR
 16 C$HD44780.c$149$1$27                                        =  014D GR
 16 C$HD44780.c$150$1$27                                        =  0153 GR
 16 C$HD44780.c$151$1$27                                        =  0159 GR
 16 C$HD44780.c$152$1$27                                        =  015F GR
 16 C$HD44780.c$153$1$27                                        =  0165 GR
 16 C$HD44780.c$154$1$27                                        =  016B GR
 16 C$HD44780.c$21$0$0                                          =  0000 GR
 16 C$HD44780.c$23$1$11                                         =  0000 GR
 16 C$HD44780.c$24$1$11                                         =  0006 GR
 16 C$HD44780.c$26$1$11                                         =  0010 GR
 16 C$HD44780.c$28$1$11                                         =  0014 GR
 16 C$HD44780.c$29$1$11                                         =  0018 GR
 16 C$HD44780.c$31$1$11                                         =  0022 GR
 16 C$HD44780.c$33$1$11                                         =  0026 GR
 16 C$HD44780.c$34$1$11                                         =  002A GR
 16 C$HD44780.c$36$1$11                                         =  0034 GR
 16 C$HD44780.c$38$1$11                                         =  0038 GR
 16 C$HD44780.c$39$1$11                                         =  003C GR
 16 C$HD44780.c$41$1$11                                         =  0046 GR
 16 C$HD44780.c$42$1$11                                         =  004A GR
 16 C$HD44780.c$48$1$11                                         =  004B GR
 16 C$HD44780.c$50$1$13                                         =  004D GR
 16 C$HD44780.c$51$1$13                                         =  0055 GR
 16 C$HD44780.c$52$1$13                                         =  0062 GR
 16 C$HD44780.c$53$1$13                                         =  0066 GR
 16 C$HD44780.c$54$1$13                                         =  006E GR
 16 C$HD44780.c$55$1$13                                         =  0073 GR
 16 C$HD44780.c$56$1$13                                         =  0077 GR
 16 C$HD44780.c$57$1$13                                         =  007D GR
 16 C$HD44780.c$63$1$13                                         =  007E GR
 16 C$HD44780.c$65$1$15                                         =  007E GR
 16 C$HD44780.c$66$1$15                                         =  0082 GR
 16 C$HD44780.c$67$1$15                                         =  0085 GR
 16 C$HD44780.c$73$1$15                                         =  0086 GR
 16 C$HD44780.c$75$1$17                                         =  0086 GR
 16 C$HD44780.c$76$1$17                                         =  008E GR
 16 C$HD44780.c$77$1$17                                         =  0091 GR
 16 C$HD44780.c$83$1$17                                         =  0092 GR
 16 C$HD44780.c$85$1$19                                         =  0098 GR
 16 C$HD44780.c$86$1$19                                         =  00A4 GR
 16 C$HD44780.c$87$1$19                                         =  00BC GR
 16 C$HD44780.c$93$1$19                                         =  00BD GR
 16 C$HD44780.c$95$1$21                                         =  00BF GR
 16 C$HD44780.c$96$1$21                                         =  00CE GR
    CPRL2                                                          00C8 
    CT2                                                            00C9 
    CY                                                             00D7 
    DPH                                                            0083 
    DPL                                                            0082 
    EA                                                             00AF 
    ES                                                             00AC 
    ET0                                                            00A9 
    ET1                                                            00AB 
    ET2                                                            00AD 
    EX0                                                            00A8 
    EX1                                                            00AA 
    EXEN2                                                          00CB 
    EXF2                                                           00CE 
    F0                                                             00D5 
    G$AC$0$0                                                    =  00D6 G
    G$ACC$0$0                                                   =  00E0 G
    G$ACC_0$0$0                                                 =  00E0 G
    G$ACC_1$0$0                                                 =  00E1 G
    G$ACC_2$0$0                                                 =  00E2 G
    G$ACC_3$0$0                                                 =  00E3 G
    G$ACC_4$0$0                                                 =  00E4 G
    G$ACC_5$0$0                                                 =  00E5 G
    G$ACC_6$0$0                                                 =  00E6 G
    G$ACC_7$0$0                                                 =  00E7 G
    G$ADCCON1$0$0                                               =  00EF G
    G$ADCCON2$0$0                                               =  00D8 G
    G$ADCCON3$0$0                                               =  00F5 G
    G$ADCDATAH$0$0                                              =  00DA G
    G$ADCDATAL$0$0                                              =  00D9 G
    G$ADCGAINH$0$0                                              =  00F4 G
    G$ADCGAINL$0$0                                              =  00F3 G
    G$ADCI$0$0                                                  =  00DF G
    G$ADCOFSH$0$0                                               =  00F2 G
    G$ADCOFSL$0$0                                               =  00F1 G
    G$B$0$0                                                     =  00F0 G
    G$B_0$0$0                                                   =  00F0 G
    G$B_1$0$0                                                   =  00F1 G
    G$B_2$0$0                                                   =  00F2 G
    G$B_3$0$0                                                   =  00F3 G
    G$B_4$0$0                                                   =  00F4 G
    G$B_5$0$0                                                   =  00F5 G
    G$B_6$0$0                                                   =  00F6 G
    G$B_7$0$0                                                   =  00F7 G
    G$CAP2$0$0                                                  =  00C8 G
    G$CCONV$0$0                                                 =  00DD G
    G$CFG841$0$0                                                =  00AF G
    G$CFG842$0$0                                                =  00AF G
    G$CHIPID$0$0                                                =  00C2 G
    G$CNT2$0$0                                                  =  00C9 G
    G$CPHA$0$0                                                  =  00FA G
    G$CPOL$0$0                                                  =  00FB G
    G$CS0$0$0                                                   =  00D8 G
    G$CS1$0$0                                                   =  00D9 G
    G$CS2$0$0                                                   =  00DA G
    G$CS3$0$0                                                   =  00DB G
    G$CY$0$0                                                    =  00D7 G
    G$DAC0H$0$0                                                 =  00FA G
    G$DAC0L$0$0                                                 =  00F9 G
    G$DAC1H$0$0                                                 =  00FC G
    G$DAC1L$0$0                                                 =  00FB G
    G$DACCON$0$0                                                =  00FD G
    G$DMA$0$0                                                   =  00DE G
    G$DMAH$0$0                                                  =  00D3 G
    G$DMAL$0$0                                                  =  00D2 G
    G$DMAP$0$0                                                  =  00D4 G
    G$DPCON$0$0                                                 =  00A7 G
    G$DPH$0$0                                                   =  0083 G
    G$DPL$0$0                                                   =  0082 G
    G$DPP$0$0                                                   =  0084 G
    G$EA$0$0                                                    =  00AF G
    G$EADC$0$0                                                  =  00AE G
    G$EADRH$0$0                                                 =  00C7 G
    G$EADRL$0$0                                                 =  00C6 G
    G$ECON$0$0                                                  =  00B9 G
    G$EDATA1$0$0                                                =  00BC G
    G$EDATA2$0$0                                                =  00BD G
    G$EDATA3$0$0                                                =  00BE G
    G$EDATA4$0$0                                                =  00BF G
    G$ES$0$0                                                    =  00AC G
    G$ET0$0$0                                                   =  00A9 G
    G$ET1$0$0                                                   =  00AB G
    G$ET2$0$0                                                   =  00AD G
    G$EX0$0$0                                                   =  00A8 G
    G$EX1$0$0                                                   =  00AA G
    G$EXEN2$0$0                                                 =  00CB G
    G$EXF2$0$0                                                  =  00CE G
    G$F0$0$0                                                    =  00D5 G
    G$F1$0$0                                                    =  00D1 G
    G$HOUR$0$0                                                  =  00A5 G
    G$HTHSEC$0$0                                                =  00A2 G
    G$I2CADD$0$0                                                =  009B G
    G$I2CADD1$0$0                                               =  0091 G
    G$I2CADD2$0$0                                               =  0092 G
    G$I2CADD3$0$0                                               =  0093 G
    G$I2CCON$0$0                                                =  00E8 G
    G$I2CDAT$0$0                                                =  009A G
    G$I2CGC$0$0                                                 =  00EE G
    G$I2CI$0$0                                                  =  00E8 G
    G$I2CID0$0$0                                                =  00EC G
    G$I2CID1$0$0                                                =  00ED G
    G$I2CM$0$0                                                  =  00EB G
    G$I2CRS$0$0                                                 =  00EA G
    G$I2CSI$0$0                                                 =  00EF G
    G$I2CTX$0$0                                                 =  00E9 G
    G$IE$0$0                                                    =  00A8 G
    G$IE0$0$0                                                   =  0089 G
    G$IE1$0$0                                                   =  008B G
    G$IEIP2$0$0                                                 =  00A9 G
    G$INT0$0$0                                                  =  00B2 G
    G$INT1$0$0                                                  =  00B3 G
    G$INTVAL$0$0                                                =  00A6 G
    G$IP$0$0                                                    =  00B8 G
    G$ISPI$0$0                                                  =  00FF G
    G$IT0$0$0                                                   =  0088 G
    G$IT1$0$0                                                   =  008A G
 16 G$LCD_Clear$0$0                                             =  00CF GR
 16 G$LCD_GoTo$0$0                                              =  00BD GR
 16 G$LCD_Home$0$0                                              =  00DC GR
 16 G$LCD_Initalize$0$0                                         =  00E9 GR
 16 G$LCD_WriteCommand$0$0                                      =  007E GR
 16 G$LCD_WriteData$0$0                                         =  0086 GR
 16 G$LCD_WriteText$0$0                                         =  0092 GR
    G$MCO$0$0                                                   =  00ED G
    G$MDE$0$0                                                   =  00EE G
    G$MDI$0$0                                                   =  00EC G
    G$MDO$0$0                                                   =  00EF G
    G$MIN$0$0                                                   =  00A4 G
    G$OV$0$0                                                    =  00D2 G
    G$P$0$0                                                     =  00D0 G
    G$P0$0$0                                                    =  0080 G
    G$P0_0$0$0                                                  =  0080 G
    G$P0_1$0$0                                                  =  0081 G
    G$P0_2$0$0                                                  =  0082 G
    G$P0_3$0$0                                                  =  0083 G
    G$P0_4$0$0                                                  =  0084 G
    G$P0_5$0$0                                                  =  0085 G
    G$P0_6$0$0                                                  =  0086 G
    G$P0_7$0$0                                                  =  0087 G
    G$P1$0$0                                                    =  0090 G
    G$P1_0$0$0                                                  =  0090 G
    G$P1_1$0$0                                                  =  0091 G
    G$P1_2$0$0                                                  =  0092 G
    G$P1_3$0$0                                                  =  0093 G
    G$P1_4$0$0                                                  =  0094 G
    G$P1_5$0$0                                                  =  0095 G
    G$P1_6$0$0                                                  =  0096 G
    G$P1_7$0$0                                                  =  0097 G
    G$P2$0$0                                                    =  00A0 G
    G$P2_0$0$0                                                  =  00A0 G
    G$P2_1$0$0                                                  =  00A1 G
    G$P2_2$0$0                                                  =  00A2 G
    G$P2_3$0$0                                                  =  00A3 G
    G$P2_4$0$0                                                  =  00A4 G
    G$P2_5$0$0                                                  =  00A5 G
    G$P2_6$0$0                                                  =  00A6 G
    G$P2_7$0$0                                                  =  00A7 G
    G$P3$0$0                                                    =  00B0 G
    G$P3_0$0$0                                                  =  00B0 G
    G$P3_1$0$0                                                  =  00B1 G
    G$P3_2$0$0                                                  =  00B2 G
    G$P3_3$0$0                                                  =  00B3 G
    G$P3_4$0$0                                                  =  00B4 G
    G$P3_5$0$0                                                  =  00B5 G
    G$P3_6$0$0                                                  =  00B6 G
    G$P3_7$0$0                                                  =  00B7 G
    G$PADC$0$0                                                  =  00BE G
    G$PCON$0$0                                                  =  0087 G
    G$PLLCON$0$0                                                =  00D7 G
    G$PRE0$0$0                                                  =  00C4 G
    G$PRE1$0$0                                                  =  00C5 G
    G$PRE2$0$0                                                  =  00C6 G
    G$PRE3$0$0                                                  =  00C7 G
    G$PS$0$0                                                    =  00BC G
    G$PSI$0$0                                                   =  00BF G
    G$PSMCON$0$0                                                =  00DF G
    G$PSW$0$0                                                   =  00D0 G
    G$PT0$0$0                                                   =  00B9 G
    G$PT1$0$0                                                   =  00BB G
    G$PT2$0$0                                                   =  00BD G
    G$PWM0H$0$0                                                 =  00B2 G
    G$PWM0L$0$0                                                 =  00B1 G
    G$PWM1H$0$0                                                 =  00B4 G
    G$PWM1L$0$0                                                 =  00B3 G
    G$PWMCON$0$0                                                =  00AE G
    G$PX0$0$0                                                   =  00B8 G
    G$PX1$0$0                                                   =  00BA G
    G$RB8$0$0                                                   =  009A G
    G$RCAP2H$0$0                                                =  00CB G
    G$RCAP2L$0$0                                                =  00CA G
    G$RCLK$0$0                                                  =  00CD G
    G$RD$0$0                                                    =  00B7 G
    G$REN$0$0                                                   =  009C G
    G$RI$0$0                                                    =  0098 G
    G$RS0$0$0                                                   =  00D3 G
    G$RS1$0$0                                                   =  00D4 G
    G$RXD$0$0                                                   =  00B0 G
    G$SBUF$0$0                                                  =  0099 G
    G$SCON$0$0                                                  =  0098 G
    G$SCONV$0$0                                                 =  00DC G
    G$SEC$0$0                                                   =  00A3 G
    G$SM0$0$0                                                   =  009F G
    G$SM1$0$0                                                   =  009E G
    G$SM2$0$0                                                   =  009D G
    G$SP$0$0                                                    =  0081 G
    G$SPE$0$0                                                   =  00FD G
    G$SPH$0$0                                                   =  00B7 G
    G$SPICON$0$0                                                =  00F8 G
    G$SPIDAT$0$0                                                =  00F7 G
    G$SPIM$0$0                                                  =  00FC G
    G$SPR0$0$0                                                  =  00F8 G
    G$SPR1$0$0                                                  =  00F9 G
    G$T0$0$0                                                    =  00B4 G
    G$T1$0$0                                                    =  00B5 G
    G$T2$0$0                                                    =  0090 G
    G$T2CON$0$0                                                 =  00C8 G
    G$T2EX$0$0                                                  =  0091 G
    G$T3CON$0$0                                                 =  009E G
    G$T3FD$0$0                                                  =  009D G
    G$TB8$0$0                                                   =  009B G
    G$TCLK$0$0                                                  =  00CC G
    G$TCON$0$0                                                  =  0088 G
    G$TF0$0$0                                                   =  008D G
    G$TF1$0$0                                                   =  008F G
    G$TF2$0$0                                                   =  00CF G
    G$TH0$0$0                                                   =  008C G
    G$TH1$0$0                                                   =  008D G
    G$TH2$0$0                                                   =  00CD G
    G$TI$0$0                                                    =  0099 G
    G$TIMECON$0$0                                               =  00A1 G
    G$TL0$0$0                                                   =  008A G
    G$TL1$0$0                                                   =  008B G
    G$TL2$0$0                                                   =  00CC G
    G$TMOD$0$0                                                  =  0089 G
    G$TR0$0$0                                                   =  008C G
    G$TR1$0$0                                                   =  008E G
    G$TR2$0$0                                                   =  00CA G
    G$TXD$0$0                                                   =  00B1 G
    G$WCOL$0$0                                                  =  00FE G
    G$WDCON$0$0                                                 =  00C0 G
    G$WDE$0$0                                                   =  00C1 G
    G$WDIR$0$0                                                  =  00C3 G
    G$WDS$0$0                                                   =  00C2 G
    G$WDWR$0$0                                                  =  00C0 G
    G$WR$0$0                                                    =  00B6 G
 16 G$_LCD_OutNibble$0$0                                        =  0000 GR
 16 G$_LCD_Write$0$0                                            =  004B GR
    IE                                                             00A8 
    IE.0                                                           00A8 
    IE.1                                                           00A9 
    IE.2                                                           00AA 
    IE.3                                                           00AB 
    IE.4                                                           00AC 
    IE.5                                                           00AD 
    IE.7                                                           00AF 
    IE0                                                            0089 
    IE1                                                            008B 
    INT0                                                           00B2 
    INT1                                                           00B3 
    IP                                                             00B8 
    IP.0                                                           00B8 
    IP.1                                                           00B9 
    IP.2                                                           00BA 
    IP.3                                                           00BB 
    IP.4                                                           00BC 
    IP.5                                                           00BD 
    IT0                                                            0088 
    IT1                                                            008A 
  9 LHD44780.LCD_GoTo$y$1$20                                    =  0000 GR
  8 LHD44780.LCD_Initalize$sloc0$1$0                            =  0003 GR
  8 LHD44780.LCD_WriteData$sloc0$1$0                            =  0002 GR
  8 LHD44780._LCD_OutNibble$sloc0$1$0                           =  0000 GR
  8 LHD44780._LCD_Write$sloc0$1$0                               =  0001 GR
    OV                                                             00D2 
    P                                                              00D0 
    P0                                                             0080 
    P0.0                                                           0080 
    P0.1                                                           0081 
    P0.2                                                           0082 
    P0.3                                                           0083 
    P0.4                                                           0084 
    P0.5                                                           0085 
    P0.6                                                           0086 
    P0.7                                                           0087 
    P1                                                             0090 
    P1.0                                                           0090 
    P1.1                                                           0091 
    P1.2                                                           0092 
    P1.3                                                           0093 
    P1.4                                                           0094 
    P1.5                                                           0095 
    P1.6                                                           0096 
    P1.7                                                           0097 
    P2                                                             00A0 
    P2.0                                                           00A0 
    P2.1                                                           00A1 
    P2.2                                                           00A2 
    P2.3                                                           00A3 
    P2.4                                                           00A4 
    P2.5                                                           00A5 
    P2.6                                                           00A6 
    P2.7                                                           00A7 
    P3                                                             00B0 
    P3.0                                                           00B0 
    P3.1                                                           00B1 
    P3.2                                                           00B2 
    P3.3                                                           00B3 
    P3.4                                                           00B4 
    P3.5                                                           00B5 
    P3.6                                                           00B6 
    P3.7                                                           00B7 
    PCON                                                           0087 
    PS                                                             00BC 
    PSW                                                            00D0 
    PSW.0                                                          00D0 
    PSW.1                                                          00D1 
    PSW.2                                                          00D2 
    PSW.3                                                          00D3 
    PSW.4                                                          00D4 
    PSW.5                                                          00D5 
    PSW.6                                                          00D6 
    PSW.7                                                          00D7 
    PT0                                                            00B9 
    PT1                                                            00BB 
    PT2                                                            00BD 
    PX0                                                            00B8 
    PX1                                                            00BA 
    RB8                                                            009A 
    RCAP2H                                                         00CB 
    RCAP2L                                                         00CA 
    RCLK                                                           00CD 
    REN                                                            009C 
    RI                                                             0098 
    RS0                                                            00D3 
    RS1                                                            00D4 
    RXD                                                            00B0 
    SBUF                                                           0099 
    SCON                                                           0098 
    SCON.0                                                         0098 
    SCON.1                                                         0099 
    SCON.2                                                         009A 
    SCON.3                                                         009B 
    SCON.4                                                         009C 
    SCON.5                                                         009D 
    SCON.6                                                         009E 
    SCON.7                                                         009F 
    SM0                                                            009F 
    SM1                                                            009E 
    SM2                                                            009D 
    SP                                                             0081 
    T2CON                                                          00C8 
    T2CON.0                                                        00C8 
    T2CON.1                                                        00C9 
    T2CON.2                                                        00CA 
    T2CON.3                                                        00CB 
    T2CON.4                                                        00CC 
    T2CON.5                                                        00CD 
    T2CON.6                                                        00CE 
    T2CON.7                                                        00CF 
    TB8                                                            009B 
    TCLK                                                           00CC 
    TCON                                                           0088 
    TCON.0                                                         0088 
    TCON.1                                                         0089 
    TCON.2                                                         008A 
    TCON.3                                                         008B 
    TCON.4                                                         008C 
    TCON.5                                                         008D 
    TCON.6                                                         008E 
    TCON.7                                                         008F 
    TF0                                                            008D 
    TF1                                                            008F 
    TF2                                                            00CF 
    TH0                                                            008C 
    TH1                                                            008D 
    TH2                                                            00CD 
    TI                                                             0099 
    TL0                                                            008A 
    TL1                                                            008B 
    TL2                                                            00CC 
    TMOD                                                           0089 
    TR0                                                            008C 
    TR1                                                            008E 
    TR2                                                            00CA 
    TXD                                                            00B1 
 16 XG$LCD_Clear$0$0                                            =  00DB GR
 16 XG$LCD_GoTo$0$0                                             =  00CE GR
 16 XG$LCD_Home$0$0                                             =  00E8 GR
 16 XG$LCD_Initalize$0$0                                        =  016B GR
 16 XG$LCD_WriteCommand$0$0                                     =  0085 GR
 16 XG$LCD_WriteData$0$0                                        =  0091 GR
 16 XG$LCD_WriteText$0$0                                        =  00BC GR
 16 XG$_LCD_OutNibble$0$0                                       =  004A GR
 16 XG$_LCD_Write$0$0                                           =  007D GR
    _AC                                                         =  00D6 G
    _ACC                                                        =  00E0 G
    _ACC_0                                                      =  00E0 G
    _ACC_1                                                      =  00E1 G
    _ACC_2                                                      =  00E2 G
    _ACC_3                                                      =  00E3 G
    _ACC_4                                                      =  00E4 G
    _ACC_5                                                      =  00E5 G
    _ACC_6                                                      =  00E6 G
    _ACC_7                                                      =  00E7 G
    _ADCCON1                                                    =  00EF G
    _ADCCON2                                                    =  00D8 G
    _ADCCON3                                                    =  00F5 G
    _ADCDATAH                                                   =  00DA G
    _ADCDATAL                                                   =  00D9 G
    _ADCGAINH                                                   =  00F4 G
    _ADCGAINL                                                   =  00F3 G
    _ADCI                                                       =  00DF G
    _ADCOFSH                                                    =  00F2 G
    _ADCOFSL                                                    =  00F1 G
    _B                                                          =  00F0 G
    _B_0                                                        =  00F0 G
    _B_1                                                        =  00F1 G
    _B_2                                                        =  00F2 G
    _B_3                                                        =  00F3 G
    _B_4                                                        =  00F4 G
    _B_5                                                        =  00F5 G
    _B_6                                                        =  00F6 G
    _B_7                                                        =  00F7 G
    _CAP2                                                       =  00C8 G
    _CCONV                                                      =  00DD G
    _CFG841                                                     =  00AF G
    _CFG842                                                     =  00AF G
    _CHIPID                                                     =  00C2 G
    _CNT2                                                       =  00C9 G
    _CPHA                                                       =  00FA G
    _CPOL                                                       =  00FB G
    _CS0                                                        =  00D8 G
    _CS1                                                        =  00D9 G
    _CS2                                                        =  00DA G
    _CS3                                                        =  00DB G
    _CY                                                         =  00D7 G
    _DAC0H                                                      =  00FA G
    _DAC0L                                                      =  00F9 G
    _DAC1H                                                      =  00FC G
    _DAC1L                                                      =  00FB G
    _DACCON                                                     =  00FD G
    _DMA                                                        =  00DE G
    _DMAH                                                       =  00D3 G
    _DMAL                                                       =  00D2 G
    _DMAP                                                       =  00D4 G
    _DPCON                                                      =  00A7 G
    _DPH                                                        =  0083 G
    _DPL                                                        =  0082 G
    _DPP                                                        =  0084 G
    _EA                                                         =  00AF G
    _EADC                                                       =  00AE G
    _EADRH                                                      =  00C7 G
    _EADRL                                                      =  00C6 G
    _ECON                                                       =  00B9 G
    _EDATA1                                                     =  00BC G
    _EDATA2                                                     =  00BD G
    _EDATA3                                                     =  00BE G
    _EDATA4                                                     =  00BF G
    _ES                                                         =  00AC G
    _ET0                                                        =  00A9 G
    _ET1                                                        =  00AB G
    _ET2                                                        =  00AD G
    _EX0                                                        =  00A8 G
    _EX1                                                        =  00AA G
    _EXEN2                                                      =  00CB G
    _EXF2                                                       =  00CE G
    _F0                                                         =  00D5 G
    _F1                                                         =  00D1 G
    _HOUR                                                       =  00A5 G
    _HTHSEC                                                     =  00A2 G
    _I2CADD                                                     =  009B G
    _I2CADD1                                                    =  0091 G
    _I2CADD2                                                    =  0092 G
    _I2CADD3                                                    =  0093 G
    _I2CCON                                                     =  00E8 G
    _I2CDAT                                                     =  009A G
    _I2CGC                                                      =  00EE G
    _I2CI                                                       =  00E8 G
    _I2CID0                                                     =  00EC G
    _I2CID1                                                     =  00ED G
    _I2CM                                                       =  00EB G
    _I2CRS                                                      =  00EA G
    _I2CSI                                                      =  00EF G
    _I2CTX                                                      =  00E9 G
    _IE                                                         =  00A8 G
    _IE0                                                        =  0089 G
    _IE1                                                        =  008B G
    _IEIP2                                                      =  00A9 G
    _INT0                                                       =  00B2 G
    _INT1                                                       =  00B3 G
    _INTVAL                                                     =  00A6 G
    _IP                                                         =  00B8 G
    _ISPI                                                       =  00FF G
    _IT0                                                        =  0088 G
    _IT1                                                        =  008A G
 16 _LCD_Clear                                                     00CF GR
 16 _LCD_GoTo                                                      00BD GR
  9 _LCD_GoTo_PARM_2                                               0000 GR
 16 _LCD_Home                                                      00DC GR
 16 _LCD_Initalize                                                 00E9 GR
  8 _LCD_Initalize_sloc0_1_0                                       0003 R
 16 _LCD_WriteCommand                                              007E GR
 16 _LCD_WriteData                                                 0086 GR
  8 _LCD_WriteData_sloc0_1_0                                       0002 R
 16 _LCD_WriteText                                                 0092 GR
    _MCO                                                        =  00ED G
    _MDE                                                        =  00EE G
    _MDI                                                        =  00EC G
    _MDO                                                        =  00EF G
    _MIN                                                        =  00A4 G
    _OV                                                         =  00D2 G
    _P                                                          =  00D0 G
    _P0                                                         =  0080 G
    _P0_0                                                       =  0080 G
    _P0_1                                                       =  0081 G
    _P0_2                                                       =  0082 G
    _P0_3                                                       =  0083 G
    _P0_4                                                       =  0084 G
    _P0_5                                                       =  0085 G
    _P0_6                                                       =  0086 G
    _P0_7                                                       =  0087 G
    _P1                                                         =  0090 G
    _P1_0                                                       =  0090 G
    _P1_1                                                       =  0091 G
    _P1_2                                                       =  0092 G
    _P1_3                                                       =  0093 G
    _P1_4                                                       =  0094 G
    _P1_5                                                       =  0095 G
    _P1_6                                                       =  0096 G
    _P1_7                                                       =  0097 G
    _P2                                                         =  00A0 G
    _P2_0                                                       =  00A0 G
    _P2_1                                                       =  00A1 G
    _P2_2                                                       =  00A2 G
    _P2_3                                                       =  00A3 G
    _P2_4                                                       =  00A4 G
    _P2_5                                                       =  00A5 G
    _P2_6                                                       =  00A6 G
    _P2_7                                                       =  00A7 G
    _P3                                                         =  00B0 G
    _P3_0                                                       =  00B0 G
    _P3_1                                                       =  00B1 G
    _P3_2                                                       =  00B2 G
    _P3_3                                                       =  00B3 G
    _P3_4                                                       =  00B4 G
    _P3_5                                                       =  00B5 G
    _P3_6                                                       =  00B6 G
    _P3_7                                                       =  00B7 G
    _PADC                                                       =  00BE G
    _PCON                                                       =  0087 G
    _PLLCON                                                     =  00D7 G
    _PRE0                                                       =  00C4 G
    _PRE1                                                       =  00C5 G
    _PRE2                                                       =  00C6 G
    _PRE3                                                       =  00C7 G
    _PS                                                         =  00BC G
    _PSI                                                        =  00BF G
    _PSMCON                                                     =  00DF G
    _PSW                                                        =  00D0 G
    _PT0                                                        =  00B9 G
    _PT1                                                        =  00BB G
    _PT2                                                        =  00BD G
    _PWM0H                                                      =  00B2 G
    _PWM0L                                                      =  00B1 G
    _PWM1H                                                      =  00B4 G
    _PWM1L                                                      =  00B3 G
    _PWMCON                                                     =  00AE G
    _PX0                                                        =  00B8 G
    _PX1                                                        =  00BA G
    _RB8                                                        =  009A G
    _RCAP2H                                                     =  00CB G
    _RCAP2L                                                     =  00CA G
    _RCLK                                                       =  00CD G
    _RD                                                         =  00B7 G
    _REN                                                        =  009C G
    _RI                                                         =  0098 G
    _RS0                                                        =  00D3 G
    _RS1                                                        =  00D4 G
    _RXD                                                        =  00B0 G
    _SBUF                                                       =  0099 G
    _SCON                                                       =  0098 G
    _SCONV                                                      =  00DC G
    _SEC                                                        =  00A3 G
    _SM0                                                        =  009F G
    _SM1                                                        =  009E G
    _SM2                                                        =  009D G
    _SP                                                         =  0081 G
    _SPE                                                        =  00FD G
    _SPH                                                        =  00B7 G
    _SPICON                                                     =  00F8 G
    _SPIDAT                                                     =  00F7 G
    _SPIM                                                       =  00FC G
    _SPR0                                                       =  00F8 G
    _SPR1                                                       =  00F9 G
    _T0                                                         =  00B4 G
    _T1                                                         =  00B5 G
    _T2                                                         =  0090 G
    _T2CON                                                      =  00C8 G
    _T2EX                                                       =  0091 G
    _T3CON                                                      =  009E G
    _T3FD                                                       =  009D G
    _TB8                                                        =  009B G
    _TCLK                                                       =  00CC G
    _TCON                                                       =  0088 G
    _TF0                                                        =  008D G
    _TF1                                                        =  008F G
    _TF2                                                        =  00CF G
    _TH0                                                        =  008C G
    _TH1                                                        =  008D G
    _TH2                                                        =  00CD G
    _TI                                                         =  0099 G
    _TIMECON                                                    =  00A1 G
    _TL0                                                        =  008A G
    _TL1                                                        =  008B G
    _TL2                                                        =  00CC G
    _TMOD                                                       =  0089 G
    _TR0                                                        =  008C G
    _TR1                                                        =  008E G
    _TR2                                                        =  00CA G
    _TXD                                                        =  00B1 G
    _WCOL                                                       =  00FE G
    _WDCON                                                      =  00C0 G
    _WDE                                                        =  00C1 G
    _WDIR                                                       =  00C3 G
    _WDS                                                        =  00C2 G
    _WDWR                                                       =  00C0 G
    _WR                                                         =  00B6 G
 16 __LCD_OutNibble                                                0000 GR
  8 __LCD_OutNibble_sloc0_1_0                                      0000 R
 16 __LCD_Write                                                    004B GR
  8 __LCD_Write_sloc0_1_0                                          0001 R
    __delay_ms                                                     **** GX
    __delay_us                                                     **** GX
    __gptrget                                                      **** GX
    a                                                              00E0 
    a.0                                                            00E0 
    a.1                                                            00E1 
    a.2                                                            00E2 
    a.3                                                            00E3 
    a.4                                                            00E4 
    a.5                                                            00E5 
    a.6                                                            00E6 
    a.7                                                            00E7 
    ac                                                             00D6 
    acc                                                            00E0 
    acc.0                                                          00E0 
    acc.1                                                          00E1 
    acc.2                                                          00E2 
    acc.3                                                          00E3 
    acc.4                                                          00E4 
    acc.5                                                          00E5 
    acc.6                                                          00E6 
    acc.7                                                          00E7 
    ar0                                                         =  0000 
    ar1                                                         =  0001 
    ar2                                                         =  0002 
    ar3                                                         =  0003 
    ar4                                                         =  0004 
    ar5                                                         =  0005 
    ar6                                                         =  0006 
    ar7                                                         =  0007 
    b                                                              00F0 
    b.0                                                            00F0 
    b.1                                                            00F1 
    b.2                                                            00F2 
    b.3                                                            00F3 
    b.4                                                            00F4 
    b.5                                                            00F5 
    b.6                                                            00F6 
    b.7                                                            00F7 
    cprl2                                                          00C8 
    ct2                                                            00C9 
    cy                                                             00D7 
    dph                                                            0083 
    dpl                                                            0082 
    ea                                                             00AF 
    es                                                             00AC 
    et0                                                            00A9 
    et1                                                            00AB 
    et2                                                            00AD 
    ex0                                                            00A8 
    ex1                                                            00AA 
    exen2                                                          00CB 
    exf2                                                           00CE 
    f0                                                             00D5 
    ie                                                             00A8 
    ie.0                                                           00A8 
    ie.1                                                           00A9 
    ie.2                                                           00AA 
    ie.3                                                           00AB 
    ie.4                                                           00AC 
    ie.5                                                           00AD 
    ie.7                                                           00AF 
    ie0                                                            0089 
    ie1                                                            008B 
    int0                                                           00B2 
    int1                                                           00B3 
    ip                                                             00B8 
    ip.0                                                           00B8 
    ip.1                                                           00B9 
    ip.2                                                           00BA 
    ip.3                                                           00BB 
    ip.4                                                           00BC 
    ip.5                                                           00BD 
    it0                                                            0088 
    it1                                                            008A 
    ov                                                             00D2 
    p                                                              00D0 
    p0                                                             0080 
    p0.0                                                           0080 
    p0.1                                                           0081 
    p0.2                                                           0082 
    p0.3                                                           0083 
    p0.4                                                           0084 
    p0.5                                                           0085 
    p0.6                                                           0086 
    p0.7                                                           0087 
    p1                                                             0090 
    p1.0                                                           0090 
    p1.1                                                           0091 
    p1.2                                                           0092 
    p1.3                                                           0093 
    p1.4                                                           0094 
    p1.5                                                           0095 
    p1.6                                                           0096 
    p1.7                                                           0097 
    p2                                                             00A0 
    p2.0                                                           00A0 
    p2.1                                                           00A1 
    p2.2                                                           00A2 
    p2.3                                                           00A3 
    p2.4                                                           00A4 
    p2.5                                                           00A5 
    p2.6                                                           00A6 
    p2.7                                                           00A7 
    p3                                                             00B0 
    p3.0                                                           00B0 
    p3.1                                                           00B1 
    p3.2                                                           00B2 
    p3.3                                                           00B3 
    p3.4                                                           00B4 
    p3.5                                                           00B5 
    p3.6                                                           00B6 
    p3.7                                                           00B7 
    pcon                                                           0087 
    ps                                                             00BC 
    psw                                                            00D0 
    psw.0                                                          00D0 
    psw.1                                                          00D1 
    psw.2                                                          00D2 
    psw.3                                                          00D3 
    psw.4                                                          00D4 
    psw.5                                                          00D5 
    psw.6                                                          00D6 
    psw.7                                                          00D7 
    pt0                                                            00B9 
    pt1                                                            00BB 
    pt2                                                            00BD 
    px0                                                            00B8 
    px1                                                            00BA 
    rb8                                                            009A 
    rcap2h                                                         00CB 
    rcap2l                                                         00CA 
    rclk                                                           00CD 
    ren                                                            009C 
    ri                                                             0098 
    rs0                                                            00D3 
    rs1                                                            00D4 
    rxd                                                            00B0 
    sbuf                                                           0099 
    scon                                                           0098 
    scon.0                                                         0098 
    scon.1                                                         0099 
    scon.2                                                         009A 
    scon.3                                                         009B 
    scon.4                                                         009C 
    scon.5                                                         009D 
    scon.6                                                         009E 
    scon.7                                                         009F 
    sm0                                                            009F 
    sm1                                                            009E 
    sm2                                                            009D 
    sp                                                             0081 
    t2con                                                          00C8 
    t2con.0                                                        00C8 
    t2con.1                                                        00C9 
    t2con.2                                                        00CA 
    t2con.3                                                        00CB 
    t2con.4                                                        00CC 
    t2con.5                                                        00CD 
    t2con.6                                                        00CE 
    t2con.7                                                        00CF 
    tb8                                                            009B 
    tclk                                                           00CC 
    tcon                                                           0088 
    tcon.0                                                         0088 
    tcon.1                                                         0089 
    tcon.2                                                         008A 
    tcon.3                                                         008B 
    tcon.4                                                         008C 
    tcon.5                                                         008D 
    tcon.6                                                         008E 
    tcon.7                                                         008F 
    tf0                                                            008D 
    tf1                                                            008F 
    tf2                                                            00CF 
    th0                                                            008C 
    th1                                                            008D 
    th2                                                            00CD 
    ti                                                             0099 
    tl0                                                            008A 
    tl1                                                            008B 
    tl2                                                            00CC 
    tmod                                                           0089 
    tr0                                                            008C 
    tr1                                                            008E 
    tr2                                                            00CA 
    txd                                                            00B1 

ASxxxx Assembler V02.00 + NoICE + SDCC mods + Flat24  (Intel 8051), page 2.

Area Table

   0 _CODE                                      size    0   flags 0
   1 RSEG                                       size    0   flags 8
   2 RSEG0                                      size    0   flags 8
   3 RSEG1                                      size    0   flags 8
   4 REG_BANK_0                                 size    8   flags 4
   5 DSEG                                       size    0   flags 0
   6 ISEG                                       size    0   flags 0
   7 IABS                                       size    0   flags 8
   8 BSEG                                       size    4   flags 80
   9 PSEG                                       size    1   flags 50
   A XSEG                                       size    0   flags 40
   B XABS                                       size    0   flags 48
   C XISEG                                      size    0   flags 40
   D HOME                                       size    0   flags 20
   E GSINIT0                                    size    0   flags 20
   F GSINIT1                                    size    0   flags 20
  10 GSINIT2                                    size    0   flags 20
  11 GSINIT3                                    size    0   flags 20
  12 GSINIT4                                    size    0   flags 20
  13 GSINIT5                                    size    0   flags 20
  14 GSINIT                                     size    0   flags 20
  15 GSFINAL                                    size    0   flags 20
  16 CSEG                                       size  16C   flags 20
  17 CONST                                      size    0   flags 20
  18 XINIT                                      size    0   flags 20
  19 CABS                                       size    0   flags 28
